<?xml version="1.0" encoding="UTF-8" ?>
<!DOCTYPE svg PUBLIC "-//W3C//DTD SVG 1.1//EN" "http://www.w3.org/Graphics/SVG/1.1/DTD/svg11.dtd">
<svg width="209pt" height="175pt" viewBox="0 0 209 175" version="1.1" xmlns="http://www.w3.org/2000/svg">
<g id="#4d4a46ff">
<path fill="#4d4a46" stroke="#4d4a46" stroke-width="0.09375" opacity="1.00" d=" M 56.76 2.98 C 69.37 0.76 82.24 0.83 94.98 1.67 C 118.28 3.41 141.41 8.32 163.15 16.93 C 175.28 21.91 186.99 28.38 196.64 37.36 C 202.07 42.51 206.13 50.22 204.40 57.86 C 203.03 63.34 198.85 67.53 194.73 71.14 C 194.79 70.53 194.92 69.30 194.99 68.68 C 197.61 65.36 200.96 62.29 201.90 57.97 C 202.97 52.52 200.98 46.80 197.30 42.73 C 192.40 37.22 186.44 32.74 180.20 28.86 C 164.03 19.01 145.53 13.68 126.95 10.73 C 111.70 8.50 95.74 7.30 80.83 12.08 C 60.40 13.13 39.37 14.95 20.46 23.44 C 24.01 18.04 29.22 14.05 34.43 10.35 C 40.94 5.68 49.06 4.37 56.76 2.98 Z" />
<path fill="#4d4a46" stroke="#4d4a46" stroke-width="0.09375" opacity="1.00" d=" M 76.11 16.18 C 85.64 11.49 96.53 10.97 106.96 11.09 C 123.73 10.69 140.11 15.22 156.00 20.11 C 168.13 23.74 179.38 29.90 189.24 37.81 C 194.62 42.02 200.48 47.54 199.92 55.01 C 200.48 60.34 196.55 64.48 192.79 67.63 C 192.93 65.08 192.71 62.31 194.31 60.12 C 197.52 54.37 194.04 47.50 189.47 43.62 C 184.73 39.64 180.34 34.97 174.66 32.32 C 168.72 30.63 162.43 32.44 156.42 31.48 C 147.60 28.36 139.05 24.39 129.92 22.21 C 116.58 18.85 102.71 18.01 89.00 18.73 C 81.78 19.12 74.83 21.27 67.97 23.38 C 70.11 20.41 72.75 17.73 76.11 16.18 Z" />
<path fill="#4d4a46" stroke="#4d4a46" stroke-width="0.09375" opacity="1.00" d=" M 9.50 38.43 C 12.12 33.80 15.30 29.50 18.45 25.21 C 17.89 33.55 20.59 42.39 27.17 47.84 C 38.74 57.64 52.00 65.30 65.82 71.46 C 61.74 75.33 57.66 79.20 53.54 83.04 C 45.27 79.68 37.11 75.98 29.31 71.63 C 22.60 67.97 17.04 62.47 12.47 56.41 C 8.66 51.40 6.91 44.36 9.50 38.43 Z" />
<path fill="#4d4a46" stroke="#4d4a46" stroke-width="0.09375" opacity="1.00" d=" M 57.45 36.14 C 58.90 31.97 62.24 28.83 65.25 25.73 C 64.27 30.49 64.98 35.83 68.45 39.45 C 74.38 45.84 81.38 51.09 88.14 56.54 C 84.61 58.86 81.03 61.12 77.48 63.41 C 72.12 59.53 66.75 55.56 62.27 50.65 C 58.88 46.74 56.29 41.42 57.45 36.14 Z" />
<path fill="#4d4a46" stroke="#4d4a46" stroke-width="0.09375" opacity="1.00" d=" M 133.05 38.85 C 144.89 34.67 157.57 33.73 170.03 33.50 C 176.80 32.92 180.96 39.41 185.62 43.24 C 181.06 43.30 176.50 42.96 171.94 42.96 C 154.84 44.45 138.51 50.20 122.70 56.61 C 103.08 65.51 84.19 76.57 68.37 91.33 C 60.98 98.47 52.78 106.69 52.18 117.59 C 49.89 114.98 47.46 112.49 45.03 110.01 C 40.74 106.55 41.61 99.69 44.78 95.75 C 51.84 86.26 60.74 78.29 69.99 70.98 C 78.04 64.74 86.69 59.22 95.90 54.85 C 108.06 49.01 120.28 43.21 133.05 38.85 Z" />
<path fill="#4d4a46" stroke="#4d4a46" stroke-width="0.09375" opacity="1.00" d=" M 128.86 55.74 C 142.30 51.02 155.80 45.63 170.12 44.42 C 173.60 44.42 177.36 43.58 180.64 45.15 C 165.01 44.43 150.57 51.40 136.70 57.68 C 124.55 63.11 113.12 70.37 103.76 79.90 C 99.21 78.72 94.67 77.50 90.14 76.24 C 102.47 68.41 115.03 60.68 128.86 55.74 Z" />
<path fill="#4d4a46" stroke="#4d4a46" stroke-width="0.09375" opacity="1.00" d=" M 183.77 44.61 C 187.62 45.46 192.23 47.61 192.81 51.99 C 193.80 59.66 188.29 65.95 183.90 71.57 C 182.31 71.51 180.73 71.45 179.15 71.38 C 183.29 66.98 187.57 62.08 188.78 55.99 C 189.60 51.47 186.88 47.54 183.77 44.61 Z" />
<path fill="#4d4a46" stroke="#4d4a46" stroke-width="0.09375" opacity="1.00" d=" M 178.99 46.76 C 182.69 46.21 186.95 48.89 186.65 52.95 C 186.14 61.26 179.76 67.54 174.22 73.07 C 169.44 73.41 164.65 73.08 159.88 73.17 C 165.92 67.42 172.31 61.87 177.01 54.92 C 178.73 52.55 178.76 49.55 178.99 46.76 Z" />
<path fill="#4d4a46" stroke="#4d4a46" stroke-width="0.09375" opacity="1.00" d=" M 109.16 77.39 C 112.70 74.29 116.36 71.33 120.24 68.66 C 127.20 71.81 134.74 73.37 142.29 74.20 C 158.09 75.43 174.30 76.42 189.70 71.86 C 187.49 74.34 184.73 76.28 181.62 77.45 C 170.02 81.99 157.40 83.02 145.05 82.71 C 132.91 82.78 120.74 81.06 109.16 77.39 Z" />
<path fill="#4d4a46" stroke="#4d4a46" stroke-width="0.09375" opacity="1.00" d=" M 165.54 83.39 C 174.86 82.09 183.76 78.83 192.37 75.16 C 183.28 87.20 168.08 91.91 153.86 94.57 C 144.39 96.71 134.65 96.02 125.02 96.24 C 122.06 96.28 119.08 96.32 116.14 95.94 C 101.52 94.13 86.90 92.35 72.36 90.07 C 77.68 85.79 83.05 81.55 88.45 77.35 C 101.07 82.17 114.70 83.52 128.09 84.28 C 140.57 84.70 153.14 85.16 165.54 83.39 Z" />
<path fill="#4d4a46" stroke="#4d4a46" stroke-width="0.09375" opacity="1.00" d=" M 77.19 92.11 C 81.25 92.70 85.31 93.31 89.37 93.88 C 86.37 98.00 84.72 102.88 84.02 107.89 C 81.67 105.65 79.35 103.39 77.13 101.02 C 77.15 98.05 77.16 95.08 77.19 92.11 Z" />
<path fill="#4d4a46" stroke="#4d4a46" stroke-width="0.09375" opacity="1.00" d=" M 141.38 99.53 C 143.98 97.66 147.26 97.63 150.33 97.48 C 135.86 106.52 120.49 114.28 104.17 119.35 C 94.01 122.49 83.89 127.00 73.04 126.49 C 67.89 126.45 62.20 126.39 58.02 122.94 C 55.70 121.24 54.63 118.50 53.84 115.86 C 64.58 116.71 75.51 115.65 85.74 112.15 C 88.68 113.48 91.65 115.02 94.93 115.27 C 111.72 115.38 127.27 107.94 141.38 99.53 Z" />
<path fill="#4d4a46" stroke="#4d4a46" stroke-width="0.09375" opacity="1.00" d=" M 110.92 102.11 C 114.59 100.83 117.86 97.96 121.93 98.25 C 127.96 98.29 133.99 98.25 140.03 98.36 C 129.48 103.69 119.08 109.95 107.27 112.05 C 101.62 113.03 95.38 114.70 89.93 112.05 C 87.71 111.09 86.95 108.66 86.05 106.63 C 94.56 107.05 103.15 105.64 110.92 102.11 Z" />
</g>
<g id="#29211ffd">
<path fill="#29211f" stroke="#29211f" stroke-width="0.09375" opacity="1.00" d=" M 95.90 137.62 C 97.16 137.60 98.42 137.59 99.67 137.59 C 99.65 139.77 99.62 141.95 99.58 144.13 C 103.15 142.41 107.70 141.33 111.21 143.80 C 116.36 147.04 116.53 155.13 112.01 159.00 C 107.62 163.02 101.04 162.75 95.82 160.64 C 95.99 152.97 95.86 145.29 95.90 137.62 M 99.59 145.77 C 99.69 149.89 99.39 154.02 99.73 158.13 C 101.26 160.74 105.10 160.97 107.57 159.65 C 112.59 156.63 112.27 147.60 106.63 145.41 C 104.34 144.35 101.89 145.25 99.59 145.77 Z" />
<path fill="#29211f" stroke="#29211f" stroke-width="0.09375" opacity="1.00" d=" M 193.85 137.63 C 194.74 137.62 196.53 137.61 197.42 137.61 C 197.41 143.70 197.42 149.80 197.41 155.89 C 193.91 159.24 189.50 163.53 184.19 161.75 C 177.51 159.89 176.56 150.56 180.99 145.98 C 184.05 142.08 189.43 142.41 193.85 142.80 C 193.84 141.08 193.84 139.35 193.85 137.63 M 185.74 145.73 C 180.04 148.42 181.70 158.65 187.92 159.52 C 189.77 159.82 191.50 158.87 193.22 158.33 C 193.18 154.47 193.17 150.61 193.24 146.76 C 191.01 145.44 188.22 144.42 185.74 145.73 Z" />
<path fill="#29211f" stroke="#29211f" stroke-width="0.09375" opacity="1.00" d=" M 124.38 142.60 C 130.68 140.72 137.62 146.35 136.62 152.96 C 136.38 160.19 127.31 164.77 121.33 160.67 C 114.13 156.54 116.32 144.26 124.38 142.60 M 124.35 144.36 C 118.34 147.97 120.30 160.82 128.03 160.49 C 133.13 159.05 133.38 152.40 131.81 148.26 C 130.91 145.14 127.48 143.06 124.35 144.36 Z" />
<path fill="#29211f" stroke="#29211f" stroke-width="0.09375" opacity="1.00" d=" M 158.87 148.66 C 162.39 145.79 166.12 142.28 170.97 142.33 C 173.75 142.13 176.20 144.44 176.43 147.17 C 176.83 151.87 176.49 156.59 176.61 161.31 C 175.35 161.30 174.09 161.30 172.84 161.29 C 172.75 156.91 173.07 152.52 172.70 148.15 C 172.59 146.32 170.83 144.92 169.04 145.03 C 166.08 144.78 163.58 146.58 161.34 148.25 C 161.38 152.60 161.34 156.94 161.32 161.28 C 160.72 161.31 159.52 161.35 158.92 161.37 C 158.91 157.13 158.91 152.90 158.87 148.66 Z" />
<path fill="#29211f" stroke="#29211f" stroke-width="0.09375" opacity="1.00" d=" M 153.15 143.78 C 154.34 143.77 155.52 143.76 156.72 143.76 C 156.70 147.97 156.69 152.18 156.70 156.39 C 153.66 158.62 150.70 161.18 147.03 162.30 C 143.70 163.33 139.82 160.56 139.70 157.06 C 139.34 152.56 139.66 148.04 139.49 143.54 C 140.46 143.54 142.42 143.54 143.40 143.54 C 143.39 148.11 142.64 152.82 143.71 157.31 C 145.56 161.40 150.58 158.89 153.22 157.03 C 153.22 152.61 153.20 148.19 153.15 143.78 Z" />
</g>
<g id="#9d9a9bff">
<path fill="#9d9a9b" stroke="#9d9a9b" stroke-width="0.09375" opacity="1.00" d=" M 51.38 137.61 C 52.27 137.62 54.05 137.62 54.94 137.63 C 54.88 143.73 54.90 149.84 54.92 155.95 C 51.37 159.36 46.78 163.66 41.42 161.65 C 34.88 159.46 34.20 150.25 38.74 145.78 C 41.85 142.08 47.07 142.39 51.42 142.84 C 51.41 141.10 51.39 139.35 51.38 137.61 M 43.52 145.63 C 37.71 148.09 39.02 158.06 44.97 159.44 C 46.99 159.99 48.92 158.98 50.75 158.30 C 50.69 154.44 50.69 150.58 50.75 146.73 C 48.59 145.48 45.94 144.45 43.52 145.63 Z" />
<path fill="#9d9a9b" stroke="#9d9a9b" stroke-width="0.09375" opacity="1.00" d=" M 16.07 152.99 C 15.42 146.93 21.46 140.89 27.58 142.59 C 31.24 143.37 33.12 147.13 32.84 150.65 C 28.33 150.95 23.80 150.84 19.28 150.84 C 19.73 153.93 20.84 157.50 24.09 158.67 C 27.07 160.25 30.01 158.18 32.59 156.85 C 32.09 159.96 28.76 161.45 26.02 162.10 C 20.83 162.83 15.95 158.15 16.07 152.99 M 20.45 149.27 C 23.30 149.33 26.16 149.33 29.02 149.24 C 28.90 146.89 27.74 144.04 24.96 144.12 C 21.97 143.69 21.34 147.22 20.45 149.27 Z" />
<path fill="#9d9a9b" stroke="#9d9a9b" stroke-width="0.09375" opacity="1.00" d=" M 57.61 151.97 C 56.19 146.92 60.98 141.86 66.03 142.31 C 70.34 142.25 74.58 146.28 73.64 150.74 C 73.26 153.93 70.37 155.81 67.75 157.14 C 67.78 157.69 67.81 158.24 67.84 158.80 C 70.84 158.94 73.99 158.88 76.77 160.17 C 79.14 161.28 80.88 164.14 79.90 166.75 C 77.99 175.03 64.95 176.49 60.73 169.45 C 58.95 166.07 61.85 163.02 64.17 160.90 C 64.20 160.04 64.26 158.32 64.29 157.46 C 61.52 156.51 58.14 155.30 57.61 151.97 M 63.35 144.36 C 59.82 147.23 60.87 155.21 65.86 155.76 C 72.63 155.15 70.28 140.98 63.35 144.36 M 67.53 161.71 C 65.01 162.53 63.01 165.26 63.79 167.95 C 65.80 172.63 74.63 173.80 75.93 167.99 C 77.30 163.24 71.59 159.87 67.53 161.71 Z" />
<path fill="#9d9a9b" stroke="#9d9a9b" stroke-width="0.09375" opacity="1.00" d=" M 78.64 158.41 C 74.09 152.53 78.35 142.58 85.91 142.32 C 90.57 141.84 94.19 146.17 93.67 150.64 C 89.15 150.96 84.62 150.83 80.09 150.86 C 80.51 154.06 81.78 157.77 85.22 158.78 C 88.16 160.17 90.92 158.05 93.49 156.87 C 91.54 163.10 82.02 163.87 78.64 158.41 M 80.14 149.25 C 83.34 149.33 86.53 149.33 89.73 149.28 C 89.79 146.95 88.63 144.21 85.96 144.12 C 82.77 143.53 81.14 146.84 80.14 149.25 Z" />
</g>
</svg>
